{
    "pleroma_key": "xxxxxxx.xxxxxxxxxxxxxxxxxxxxxxxxxxxxxxx.xxxxxxxxxxxxxxxxxxxxxxxxxxxxxxxxxxxxxxxxxxx",
    "source": "cool bot",
    "visibility": "unlisted",
    "authorization": "Bearer xxxxxxxxx_xxxxxxxxxxxxxxxxxxxxxxxxxxxxxxxxxx",
    "base": "twitter.com"
}
